Functional ForeCasting • ffc
…
The time-varying coefficients can be extracted into a tidy format using fts_coefs(), which will facilitate the use of time series models to enable efficient forecasting of the entire curve into the future. Using summary = FALSE will return draws of each coefficient time series from the model’s empirical Bayesian posterior distribution (you can control the number of draws that are returned using the times argument):

functional_coefs <- fts_coefs(
  mod,
  summary = FALSE,
  times = 10
)
functional_coefs
#> # A tibble: 7,790 × 5
#>    .basis                     .time .estimate .realisation  year
#>    <chr>                      <int>     <dbl>        <int> <int>
#>  1 fts_bs_s_age_bysexfemale_1  1980     -3.78            1  1980
#>  2 fts_bs_s_age_bysexfemale_1  1981     -3.79            1  1981
#>  3 fts_bs_s_age_bysexfemale_1  1982     -3.80            1  1982
#>  4 fts_bs_s_age_bysexfemale_1  1983     -3.82            1  1983
#>  5 fts_bs_s_age_bysexfemale_1  1984     -3.83            1  1984
#>  6 fts_bs_s_age_bysexfemale_1  1985     -3.83            1  1985
#>  7 fts_bs_s_age_bysexfemale_1  1986     -3.81            1  1986
#>  8 fts_bs_s_age_bysexfemale_1  1987     -3.80            1  1987
#>  9 fts_bs_s_age_bysexfemale_1  1988     -3.78            1  1988
#> 10 fts_bs_s_age_bysexfemale_1  1989     -3.76            1  1989
#> # ℹ 7,780 more rows
…
Clearly there is a lot of structure and dependence here, suggesting that a dynamic factor model fitted to these coefficient time series would be valuable for creating functional forecasts. But for now we can apply any model from the fable 📦 to these replicate time series and generate future forecast realisations, which can be summarised to approximate the full uncertainty in our coefficient forecast distributions. Again here you can control the number of forecast paths that are simulated from the underlying time series models using the times argument

functional_fc <- forecast(
  object = functional_coefs,
  h = 5,
  times = 5
)
#> Registered S3 method overwritten by 'tsibble':
#>   method               from 
#>   as_tibble.grouped_df dplyr
functional_fc
#> # A tsibble: 4,750 x 6 [1Y]
#> # Key:       .basis, .realisation, .model, .rep [950]
#>    .basis        .realisation .model .time .rep    .sim
#>    <chr>                <int> <chr>  <dbl> <chr>  <dbl>
#>  1 fts_age1_mean            1 ARIMA   2021 1     -0.384
#>  2 fts_age1_mean            1 ARIMA   2022 1     -0.393
#>  3 fts_age1_mean            1 ARIMA   2023 1     -0.403
#>  4 fts_age1_mean            1 ARIMA   2024 1     -0.415
#>  5 fts_age1_mean            1 ARIMA   2025 1     -0.434
#>  6 fts_age1_mean            1 ARIMA   2021 2     -0.387
#>  7 fts_age1_mean            1 ARIMA   2022 2     -0.405
#>  8 fts_age1_mean            1 ARIMA   2023 2     -0.428
#>  9 fts_age1_mean            1 ARIMA   2024 2     -0.448
#> 10 fts_age1_mean            1 ARIMA   2025 2     -0.467
#> # ℹ 4,740 more rows
…
