…
``` r
tourism_melb <- tourism |>
  filter(
    Region == "Melbourne",
    Purpose == "Visiting"
  ) |>
  mutate(
    quarter = lubridate::quarter(Quarter),
    time = dplyr::row_number()
  )
tourism_melb
#> # A tsibble: 80 x 7 [1Q]
#> # Key:       Region, State, Purpose [1]
#>    Quarter Region    State    Purpose  Trips quarter  time
#>      <qtr> <chr>     <chr>    <chr>    <dbl>   <int> <int>
#>  1 1998 Q1 Melbourne Victoria Visiting  666.       1     1
#>  2 1998 Q2 Melbourne Victoria Visiting  601.       2     2
#>  3 1998 Q3 Melbourne Victoria Visiting  529.       3     3
#>  4 1998 Q4 Melbourne Victoria Visiting  575.       4     4
#>  5 1999 Q1 Melbourne Victoria Visiting  623.       1     5
#>  6 1999 Q2 Melbourne Victoria Visiting  530.       2     6
#>  7 1999 Q3 Melbourne Victoria Visiting  479.       3     7
#>  8 1999 Q4 Melbourne Victoria Visiting  538.       4     8
#>  9 2000 Q1 Melbourne Victoria Visiting  618.       1     9
#> 10 2000 Q2 Melbourne Victoria Visiting  549.       2    10
#> # ℹ 70 more rows
```
…
