Fit a functional time series model using dynamic functional coefficients — ffc_gam • ffc
…
# Predictions work in the usual way
head(predict(mod, type = "link"))
#>        1        2        3        4        5        6 
#> 3.985387 3.572323 3.185908 2.815229 2.452154 2.112488 
head(predict(mod, type = "response"))
#>         1         2         3         4         5         6 
#> 53.806134 35.599209 24.189249 16.697007 11.613336  8.268789 

# Extract basis coefficient time series
(functional_ts <- fts_coefs(mod))
#> # A tibble: 287 × 5
#>    .basis          .time .estimate      .se  year
#>    <chr>           <int>     <dbl>    <dbl> <int>
#>  1 fts_bs_s_age__1  1980     -4.12 0.00131   1980
#>  2 fts_bs_s_age__1  1981     -4.07 0.00110   1981
#>  3 fts_bs_s_age__1  1982     -4.01 0.000935  1982
#>  4 fts_bs_s_age__1  1983     -3.96 0.000836  1983
#>  5 fts_bs_s_age__1  1984     -3.90 0.000786  1984
#>  6 fts_bs_s_age__1  1985     -3.84 0.000756  1985
#>  7 fts_bs_s_age__1  1986     -3.78 0.000735  1986
#>  8 fts_bs_s_age__1  1987     -3.72 0.000728  1987
#>  9 fts_bs_s_age__1  1988     -3.66 0.000733  1988
#> 10 fts_bs_s_age__1  1989     -3.60 0.000735  1989
#> # ℹ 277 more rows
…
