…
``` r
# Extract coefficients and generate forecasts
mod <- ffc_gam(
  deaths ~ offset(log(population)) + sex +
    fts(age, k = 8, bs = "cr", time_k = 10),
  time = "year",
  data = qld_mortality,
  family = poisson(),
  engine = "bam"
)
coefs <- fts_coefs(mod, summary = FALSE, times = 5)

# Generate ETS forecasts
forecast(coefs, model = "ETS", h = 3)
#> # A tsibble: 2,625 x 6 [1Y]
#> # Key:       .basis, .realisation, .model, .rep [875]
#>    .basis          .realisation .model  year .rep   .sim
#>    <chr>                  <int> <chr>  <dbl> <chr> <dbl>
#>  1 fts_bs_s_age__1            1 ETS     2021 1     -1.90
#>  2 fts_bs_s_age__1            1 ETS     2022 1     -1.85
#>  3 fts_bs_s_age__1            1 ETS     2023 1     -1.79
#>  4 fts_bs_s_age__1            1 ETS     2021 10    -1.91
#>  5 fts_bs_s_age__1            1 ETS     2022 10    -1.86
#>  6 fts_bs_s_age__1            1 ETS     2023 10    -1.81
#>  7 fts_bs_s_age__1            1 ETS     2021 11    -1.90
#>  8 fts_bs_s_age__1            1 ETS     2022 11    -1.84
#>  9 fts_bs_s_age__1            1 ETS     2023 11    -1.77
#> 10 fts_bs_s_age__1            1 ETS     2021 12    -1.91
#> # ℹ 2,615 more rows
```
