Forecasting functional basis coefficients — forecast.fts_ts • ffc
…
  family = poisson(),
  engine = "bam"
)
coefs <- fts_coefs(mod, summary = FALSE, times = 5)
forecast(coefs, h = 3, model = "ARIMA")
#> Warning: NaNs produced
#> Warning: NaNs produced
#> Warning: NaNs produced
#> Warning: NaNs produced
#> Warning: NaNs produced
#> Warning: NaNs produced
#> Warning: NaNs produced
#> Warning: NaNs produced
#> Warning: NaNs produced
#> # A tsibble: 2,625 x 6 [1Y]
#> # Key:       .basis, .realisation, .model, .rep [875]
#>    .basis          .realisation .model .time .rep   .sim
#>    <chr>                  <int> <chr>  <dbl> <chr> <dbl>
#>  1 fts_bs_s_age__1            1 ARIMA   2021 1     -1.93
#>  2 fts_bs_s_age__1            1 ARIMA   2022 1     -1.87
#>  3 fts_bs_s_age__1            1 ARIMA   2023 1     -1.81
#>  4 fts_bs_s_age__1            1 ARIMA   2021 10    -1.93
#>  5 fts_bs_s_age__1            1 ARIMA   2022 10    -1.88
#>  6 fts_bs_s_age__1            1 ARIMA   2023 10    -1.83
#>  7 fts_bs_s_age__1            1 ARIMA   2021 11    -1.93
#>  8 fts_bs_s_age__1            1 ARIMA   2022 11    -1.87
#>  9 fts_bs_s_age__1            1 ARIMA   2023 11    -1.81
#> 10 fts_bs_s_age__1            1 ARIMA   2021 12    -1.93
#> # ℹ 2,615 more rows
…
