Distributional Regression for Motorcycle Crash Data with Time-Varying Location and Scale Parameters • ffc
…
Fitted location and scale parameters reveal distinct temporal patterns
in crash dynamics.

The location parameter captures the mean acceleration trajectory
while the scale parameter adapts to varying uncertainty levels
throughout the crash sequence.

Extracting parameter-specific coefficients

The functional coefficients reveal the underlying dynamics of each
distributional parameter:

# View coefficient structure
fts_results
#> # A tibble: 5,450 × 6
#>    .basis                   .parameter .time .estimate .realisation index
#>  * <chr>                    <chr>      <int>     <dbl>        <int> <int>
#>  1 location_fts_index1_mean location       1      27.8            1     1
#>  2 location_fts_index1_mean location       2      27.2            1     2
#>  3 location_fts_index1_mean location       3      26.7            1     3
#>  4 location_fts_index1_mean location       4      26.3            1     4
#>  5 location_fts_index1_mean location       5      26.2            1     5
#>  6 location_fts_index1_mean location       6      26.2            1     6
#>  7 location_fts_index1_mean location       7      26.1            1     7
#>  8 location_fts_index1_mean location       8      26.0            1     8
#>  9 location_fts_index1_mean location       9      25.8            1     9
#> 10 location_fts_index1_mean location      10      25.4            1    10
#> # ℹ 5,440 more rows
…
Single forecast demonstration

Generate forecasts that provide both mean predictions and uncertainty
intervals based on the evolving variance structure:

fc_single <- forecast(
  mcycle_gaulss_model,
  newdata = mcycle_test,
  model = "ENS",
  mean_model = "ENS"
)

# Examine forecast structure
fc_single
#> # A tibble: 24 × 6
#>    .estimate .error  .q2.5  .q10  .q90 .q97.5
#>        <dbl>  <dbl>  <dbl> <dbl> <dbl>  <dbl>
#>  1     16.2    26.0  -52.8 -28.1  69.5   94.0
#>  2     26.4    28.3  -59.2 -29.9  78.8  120. 
#>  3     17.8    36.2 -110.  -45.4  86.8  132. 
#>  4     35.7    29.7  -59.5 -15.3 103.   126. 
#>  5     17.6    30.9  -52.0 -28.2  78.7  113. 
#>  6      7.02   33.6  -63.9 -43.0  72.3  125. 
#>  7     15.3    34.9 -112.  -50.1  94.5  119. 
#>  8      5.44   30.4  -96.6 -52.9  71.3  102. 
#>  9     17.5    24.4  -61.0 -31.5  64.2   94.5
#> 10     21.4    28.6 -104.  -42.8  64.4  115. 
#> # ℹ 14 more rows
…
