…
Fitted seasonal cycles for selected years. The model captures both the
mean seasonal pattern and year-specific deviations.

### Extracting time-varying coefficients

The functional coefficients reveal the underlying dynamics:

``` r
# Extract coefficients with their time series structure
func_coefs <- fts_coefs(mod_elnino, summary = FALSE, times = 10)
print(func_coefs)
#> # A tibble: 3,630 × 5
#>    .basis         .time .estimate .realisation  year
#>  * <chr>          <int>     <dbl>        <int> <int>
#>  1 fts_year1_mean  1982    0.848             1  1982
#>  2 fts_year1_mean  1983    2.46              1  1983
#>  3 fts_year1_mean  1984    0.0211            1  1984
#>  4 fts_year1_mean  1985   -1.28              1  1985
#>  5 fts_year1_mean  1986    0.255             1  1986
#>  6 fts_year1_mean  1987    0.309             1  1987
#>  7 fts_year1_mean  1988   -0.546             1  1988
#>  8 fts_year1_mean  1989   -0.485             1  1989
#>  9 fts_year1_mean  1990   -0.383             1  1990
#> 10 fts_year1_mean  1991    0.147             1  1991
#> # ℹ 3,620 more rows
…
