Modeling Mortality Trends with Functional Forecasting • ffc
…
Development of comprehensive diagnostic tools for ffc models is
ongoing.

Extracting time-varying coefficients

The power of functional forecasting lies in treating the evolving
coefficients as time series that can be forecasted:

functional_coefs <- fts_coefs(
  mod,
  summary = FALSE,
  times = 10  # Number of coefficient draws
)
functional_coefs
#> # A tibble: 7,790 × 5
#>    .basis         .time .estimate .realisation  year
#>  * <chr>          <int>     <dbl>        <int> <int>
#>  1 fts_year1_mean  1980     0.406            1  1980
#>  2 fts_year1_mean  1981     0.389            1  1981
#>  3 fts_year1_mean  1982     0.420            1  1982
#>  4 fts_year1_mean  1983     0.320            1  1983
#>  5 fts_year1_mean  1984     0.308            1  1984
#>  6 fts_year1_mean  1985     0.330            1  1985
#>  7 fts_year1_mean  1986     0.279            1  1986
#>  8 fts_year1_mean  1987     0.249            1  1987
#>  9 fts_year1_mean  1988     0.232            1  1988
#> 10 fts_year1_mean  1989     0.260            1  1989
#> # ℹ 7,780 more rows
…
Interdependence: Multiple coefficients work together to create the
functional evolution

Forecasting mortality patterns

Coefficient forecasting

functional_fc <- forecast(
  object = functional_coefs,
  h = 5,      # 5-year horizon
  times = 10, # Forecast replicates
  model = "ARIMA"
)
functional_fc
#> # A tsibble: 9,500 x 6 [1Y]
#> # Key:       .basis, .realisation, .model, .rep [1,900]
#>    .basis                     .realisation .model .time .rep   .sim
#>    <chr>                             <int> <chr>  <dbl> <chr> <dbl>
#>  1 fts_bs_s_age_bysexfemale_1            1 ARIMA   2021 1      1.96
#>  2 fts_bs_s_age_bysexfemale_1            1 ARIMA   2022 1      1.95
#>  3 fts_bs_s_age_bysexfemale_1            1 ARIMA   2023 1      1.95
#>  4 fts_bs_s_age_bysexfemale_1            1 ARIMA   2024 1      2.00
#>  5 fts_bs_s_age_bysexfemale_1            1 ARIMA   2025 1      2.09
#>  6 fts_bs_s_age_bysexfemale_1            1 ARIMA   2021 10     1.96
#>  7 fts_bs_s_age_bysexfemale_1            1 ARIMA   2022 10     1.98
#>  8 fts_bs_s_age_bysexfemale_1            1 ARIMA   2023 10     2.01
#>  9 fts_bs_s_age_bysexfemale_1            1 ARIMA   2024 10     2.08
#> 10 fts_bs_s_age_bysexfemale_1            1 ARIMA   2025 10     2.15
#> # ℹ 9,490 more rows
…
